[
  {
    "type": "run_start",
    "run_id": "20260604T100605Z",
    "model": "google/gemini-3-flash-preview",
    "task": "mailbox",
    "ts": "20260604T100605Z"
  },
  {
    "type": "llm_text",
    "text": "",
    "ts": "20260604T100607Z"
  },
  {
    "type": "tool_start",
    "tool": "zmail_help",
    "input": "{'page': 1}",
    "ts": "20260604T100607Z"
  },
  {
    "type": "http_request",
    "url": "https://hub.ag3nts.org/api/zmail",
    "body": {
      "apikey": "***",
      "action": "help",
      "page": 1
    },
    "ts": "20260604T100607Z"
  },
  {
    "type": "http_response",
    "url": "https://hub.ag3nts.org/api/zmail",
    "status_code": 200,
    "preview": "{'ok': True, 'mode': 'read_only', 'description': 'Gmail API. All actions are read-only.', 'actions': {'help': {'description': 'Show available actions and required parameters.', 'params': []}, 'getInbox': {'description': 'Return list of threads in your mailbox.', 'params': {'action': 'getInbox', 'page': 'Optional. Integer >= 1. Default: 1.', 'perPage': 'Optional. Integer between 5 and 20. Default: 5.'}}, 'getThread': {'description': 'Return rowID and messageID list for a selected thread. No message body.', 'params': {'action': 'getThread', 'threadID': 'Required. Numeric thread identifier.'}}, '",
    "ts": "20260604T100607Z"
  },
  {
    "type": "tool_end",
    "tool": "?",
    "output": "content='{\"ok\": true, \"mode\": \"read_only\", \"description\": \"Gmail API. All actions are read-only.\", \"actions\": {\"help\": {\"description\": \"Show available actions and required parameters.\", \"params\": []}, \"getInbox\": {\"description\": \"Return list of threads in your mailbox.\", \"params\": {\"action\": \"getInbox\", \"page\": \"Optional. Integer >= 1. Default: 1.\", \"perPage\": \"Optional. Integer between 5 and 20. Default: 5.\"}}, \"getThread\": {\"description\": \"Return rowID and messageID list for a selected thread. No message body.\", \"params\": {\"action\": \"getThread\", \"threadID\": \"Required. Numeric thread identifier.\"}}, \"getMessages\": {\"description\": \"Return one or more messages by rowID/messageID (hash).\", \"params\": {\"action\": \"getMessages\", \"ids\": \"Required. Numeric rowID, 32-char messageID, or an array of ",
    "ts": "20260604T100607Z"
  },
  {
    "type": "llm_text",
    "text": "",
    "ts": "20260604T100608Z"
  },
  {
    "type": "tool_start",
    "tool": "zmail_search",
    "input": "{'query': 'from:proton.me'}",
    "ts": "20260604T100608Z"
  },
  {
    "type": "http_request",
    "url": "https://hub.ag3nts.org/api/zmail",
    "body": {
      "apikey": "***",
      "action": "search",
      "query": "from:proton.me",
      "page": 1
    },
    "ts": "20260604T100612Z"
  },
  {
    "type": "http_response",
    "url": "https://hub.ag3nts.org/api/zmail",
    "status_code": 200,
    "preview": "{'ok': True, 'action': 'search', 'query': 'from:proton.me', 'pagination': {'page': 1, 'perPage': 5, 'total': 1, 'totalPages': 1}, 'items': [{'rowID': 86, 'messageID': '6624add090a5cb06f5c192653b5a243c', 'threadID': 62044, 'subject': 'Podejrzana aktywność przy obiekcie PWR6132PL', 'from': 'vik4tor@proton.me', 'to': 'operator04227@system.nwo', 'date': '2026-03-05 16:25', 'snippet': 'Jako obywatel wierny ideałom S...'}]}",
    "ts": "20260604T100613Z"
  },
  {
    "type": "tool_end",
    "tool": "?",
    "output": "content='{\"ok\": true, \"action\": \"search\", \"query\": \"from:proton.me\", \"pagination\": {\"page\": 1, \"perPage\": 5, \"total\": 1, \"totalPages\": 1}, \"items\": [{\"rowID\": 86, \"messageID\": \"6624add090a5cb06f5c192653b5a243c\", \"threadID\": 62044, \"subject\": \"Podejrzana aktywność przy obiekcie PWR6132PL\", \"from\": \"vik4tor@proton.me\", \"to\": \"operator04227@system.nwo\", \"date\": \"2026-03-05 16:25\", \"snippet\": \"Jako obywatel wierny ideałom S...\"}]}' name='zmail_search' tool_call_id='tool_zmail_search_ZVkdPfrTyXDasR1ew8E2'",
    "ts": "20260604T100613Z"
  },
  {
    "type": "llm_text",
    "text": "",
    "ts": "20260604T100614Z"
  },
  {
    "type": "tool_start",
    "tool": "zmail_get_message",
    "input": "{'message_id': '86'}",
    "ts": "20260604T100614Z"
  },
  {
    "type": "http_request",
    "url": "https://hub.ag3nts.org/api/zmail",
    "body": {
      "apikey": "***",
      "action": "getMessages",
      "ids": "86"
    },
    "ts": "20260604T100618Z"
  },
  {
    "type": "http_response",
    "url": "https://hub.ag3nts.org/api/zmail",
    "status_code": 200,
    "preview": "{'ok': True, 'action': 'getMessages', 'count': 1, 'items': [{'rowID': 86, 'messageID': '0275af42c646b4e01e7c04927e1c4448', 'threadID': 62043, 'subject': 'Sąsiad zaniża raporty wydajności', 'message': 'Nazywam się Wiktor Konieczny. Chciałbym zgłosić, że mój sąsiad manipuluje raportami wydajności i wpisuje lepsze wyniki niż ma naprawdę. Uważam, że to oszustwo wobec Systemu.', 'from': 'w.konieczny@strefa-blok4.nwo', 'to': 'operator04227@system.nwo', 'date': '2026-03-05 09:16', 'request': 1}], 'notFound': []}",
    "ts": "20260604T100618Z"
  },
  {
    "type": "tool_end",
    "tool": "?",
    "output": "content='{\"ok\": true, \"action\": \"getMessages\", \"count\": 1, \"items\": [{\"rowID\": 86, \"messageID\": \"0275af42c646b4e01e7c04927e1c4448\", \"threadID\": 62043, \"subject\": \"Sąsiad zaniża raporty wydajności\", \"message\": \"Nazywam się Wiktor Konieczny. Chciałbym zgłosić, że mój sąsiad manipuluje raportami wydajności i wpisuje lepsze wyniki niż ma naprawdę. Uważam, że to oszustwo wobec Systemu.\", \"from\": \"w.konieczny@strefa-blok4.nwo\", \"to\": \"operator04227@system.nwo\", \"date\": \"2026-03-05 09:16\", \"request\": 1}], \"notFound\": []}' name='zmail_get_message' tool_call_id='tool_zmail_get_message_ZR6YYPQILKJ0DZyLvWqB'",
    "ts": "20260604T100618Z"
  },
  {
    "type": "llm_text",
    "text": "",
    "ts": "20260604T100621Z"
  },
  {
    "type": "tool_start",
    "tool": "zmail_search",
    "input": "{'query': 'subject:SEC-'}",
    "ts": "20260604T100621Z"
  },
  {
    "type": "http_request",
    "url": "https://hub.ag3nts.org/api/zmail",
    "body": {
      "apikey": "***",
      "action": "search",
      "query": "subject:SEC-",
      "page": 1
    },
    "ts": "20260604T100623Z"
  },
  {
    "type": "http_response",
    "url": "https://hub.ag3nts.org/api/zmail",
    "status_code": 200,
    "preview": "{'ok': True, 'action': 'search', 'query': 'subject:SEC-', 'pagination': {'page': 1, 'perPage': 5, 'total': 4, 'totalPages': 1}, 'items': [{'rowID': 1, 'messageID': '162c1766431694d20b4c2e0743b9fbb9', 'threadID': 62045, 'subject': 'Re: Przyjęliśmy Twoje zgłoszenie - Ticket SEC-41248', 'from': 'security@system.nwo', 'to': 'operator04227@system.nwo', 'date': '2026-03-13 12:05', 'snippet': 'Ajj! zły kod potwierdzenia Ci ...'}, {'rowID': 0, 'messageID': '670fde775b128fbb4be2041ba26f7989', 'threadID': 62045, 'subject': 'Re: Przyjęliśmy Twoje zgłoszenie - Ticket SEC-41248', 'from': 'security@system.n",
    "ts": "20260604T100623Z"
  },
  {
    "type": "tool_end",
    "tool": "?",
    "output": "content='{\"ok\": true, \"action\": \"search\", \"query\": \"subject:SEC-\", \"pagination\": {\"page\": 1, \"perPage\": 5, \"total\": 4, \"totalPages\": 1}, \"items\": [{\"rowID\": 1, \"messageID\": \"162c1766431694d20b4c2e0743b9fbb9\", \"threadID\": 62045, \"subject\": \"Re: Przyjęliśmy Twoje zgłoszenie - Ticket SEC-41248\", \"from\": \"security@system.nwo\", \"to\": \"operator04227@system.nwo\", \"date\": \"2026-03-13 12:05\", \"snippet\": \"Ajj! zły kod potwierdzenia Ci ...\"}, {\"rowID\": 0, \"messageID\": \"670fde775b128fbb4be2041ba26f7989\", \"threadID\": 62045, \"subject\": \"Re: Przyjęliśmy Twoje zgłoszenie - Ticket SEC-41248\", \"from\": \"security@system.nwo\", \"to\": \"operator04227@system.nwo\", \"date\": \"2026-03-13 12:03\", \"snippet\": \"Postanowilismy w najblizszy po...\"}, {\"rowID\": 92, \"messageID\": \"200a0a6cd400d7a6591404f50fd57448\", \"threadID\": ",
    "ts": "20260604T100623Z"
  },
  {
    "type": "llm_text",
    "text": "",
    "ts": "20260604T100625Z"
  },
  {
    "type": "tool_start",
    "tool": "zmail_get_message",
    "input": "{'message_id': '0'}",
    "ts": "20260604T100625Z"
  },
  {
    "type": "tool_start",
    "tool": "zmail_get_message",
    "input": "{'message_id': '1'}",
    "ts": "20260604T100625Z"
  },
  {
    "type": "tool_start",
    "tool": "zmail_get_message",
    "input": "{'message_id': '91'}",
    "ts": "20260604T100625Z"
  },
  {
    "type": "http_request",
    "url": "https://hub.ag3nts.org/api/zmail",
    "body": {
      "apikey": "***",
      "action": "getMessages",
      "ids": "1"
    },
    "ts": "20260604T100628Z"
  },
  {
    "type": "http_request",
    "url": "https://hub.ag3nts.org/api/zmail",
    "body": {
      "apikey": "***",
      "action": "getMessages",
      "ids": "91"
    },
    "ts": "20260604T100628Z"
  },
  {
    "type": "http_request",
    "url": "https://hub.ag3nts.org/api/zmail",
    "body": {
      "apikey": "***",
      "action": "getMessages",
      "ids": "0"
    },
    "ts": "20260604T100628Z"
  },
  {
    "type": "http_response",
    "url": "https://hub.ag3nts.org/api/zmail",
    "status_code": 200,
    "preview": "{'ok': True, 'action': 'getMessages', 'count': 1, 'items': [{'rowID': 0, 'messageID': '670fde775b128fbb4be2041ba26f7989', 'threadID': 62045, 'subject': 'Re: Przyjęliśmy Twoje zgłoszenie - Ticket SEC-41248', 'message': 'Postanowilismy w najblizszy poniedzialek (tj. 2026-03-23) zbombardowac ten obiekt. Nie ma sensu wysylac tam sluzb zwiadowczych. Zrzucenie bomby niewiele kosztuje.\\n    kod potwierdzenia przyjęcia akcji: SEC-c1e598764329cc9c377ef1d029be8ce (confirmation code)', 'from': 'security@system.nwo', 'to': 'operator04227@system.nwo', 'date': '2026-03-13 12:03', 'request': 3}], 'notFound':",
    "ts": "20260604T100629Z"
  },
  {
    "type": "tool_end",
    "tool": "?",
    "output": "content='{\"ok\": true, \"action\": \"getMessages\", \"count\": 1, \"items\": [{\"rowID\": 0, \"messageID\": \"670fde775b128fbb4be2041ba26f7989\", \"threadID\": 62045, \"subject\": \"Re: Przyjęliśmy Twoje zgłoszenie - Ticket SEC-41248\", \"message\": \"Postanowilismy w najblizszy poniedzialek (tj. 2026-03-23) zbombardowac ten obiekt. Nie ma sensu wysylac tam sluzb zwiadowczych. Zrzucenie bomby niewiele kosztuje.\\\\n    kod potwierdzenia przyjęcia akcji: SEC-c1e598764329cc9c377ef1d029be8ce (confirmation code)\", \"from\": \"security@system.nwo\", \"to\": \"operator04227@system.nwo\", \"date\": \"2026-03-13 12:03\", \"request\": 3}], \"notFound\": []}' name='zmail_get_message' tool_call_id='tool_zmail_get_message_qe7IuUCMgvg0effzbdP7'",
    "ts": "20260604T100629Z"
  },
  {
    "type": "http_response",
    "url": "https://hub.ag3nts.org/api/zmail",
    "status_code": 200,
    "preview": "{'ok': True, 'action': 'getMessages', 'count': 1, 'items': [{'rowID': 1, 'messageID': '162c1766431694d20b4c2e0743b9fbb9', 'threadID': 62045, 'subject': 'Re: Przyjęliśmy Twoje zgłoszenie - Ticket SEC-41248', 'message': 'Ajj! zły kod potwierdzenia Ci wysłałem! Zgubiłem literkę na końcu. Poprawny to: SEC-c1e598764329cc9c377ef1d029be8ceb', 'from': 'security@system.nwo', 'to': 'operator04227@system.nwo', 'date': '2026-03-13 12:05', 'request': 4}], 'notFound': []}",
    "ts": "20260604T100629Z"
  },
  {
    "type": "tool_end",
    "tool": "?",
    "output": "content='{\"ok\": true, \"action\": \"getMessages\", \"count\": 1, \"items\": [{\"rowID\": 1, \"messageID\": \"162c1766431694d20b4c2e0743b9fbb9\", \"threadID\": 62045, \"subject\": \"Re: Przyjęliśmy Twoje zgłoszenie - Ticket SEC-41248\", \"message\": \"Ajj! zły kod potwierdzenia Ci wysłałem! Zgubiłem literkę na końcu. Poprawny to: SEC-c1e598764329cc9c377ef1d029be8ceb\", \"from\": \"security@system.nwo\", \"to\": \"operator04227@system.nwo\", \"date\": \"2026-03-13 12:05\", \"request\": 4}], \"notFound\": []}' name='zmail_get_message' tool_call_id='tool_zmail_get_message_qvAf0URb4d4twBzT5Hhr'",
    "ts": "20260604T100629Z"
  },
  {
    "type": "http_response",
    "url": "https://hub.ag3nts.org/api/zmail",
    "status_code": 200,
    "preview": "{'ok': True, 'action': 'getMessages', 'count': 1, 'items': [{'rowID': 91, 'messageID': '6624add090a5cb06f5c192653b5a243c', 'threadID': 62044, 'subject': 'Podejrzana aktywność przy obiekcie PWR6132PL', 'message': 'Jako obywatel wierny ideałom Systemu, uprzejmie donoszę, że w okolicach elektrowni w Żarnowcu, czyli przy obiekcie PWR6132PL widziałem ludzi z bronią. Są to prawdopodobnie rebelianci z Ruchu Oporu.\\n\\nNie wiem co tam robią, ale myślę, że zagrażają oni Systemowi. Chcę, abyście o tym wiedzeli. Sugeruję wysłać tam drona zwiadowczego\\n\\npozdrawiam Wiktor Borkowski / dla przyjaciół: Victor",
    "ts": "20260604T100629Z"
  },
  {
    "type": "tool_end",
    "tool": "?",
    "output": "content='{\"ok\": true, \"action\": \"getMessages\", \"count\": 1, \"items\": [{\"rowID\": 91, \"messageID\": \"6624add090a5cb06f5c192653b5a243c\", \"threadID\": 62044, \"subject\": \"Podejrzana aktywność przy obiekcie PWR6132PL\", \"message\": \"Jako obywatel wierny ideałom Systemu, uprzejmie donoszę, że w okolicach elektrowni w Żarnowcu, czyli przy obiekcie PWR6132PL widziałem ludzi z bronią. Są to prawdopodobnie rebelianci z Ruchu Oporu.\\\\n\\\\nNie wiem co tam robią, ale myślę, że zagrażają oni Systemowi. Chcę, abyście o tym wiedzeli. Sugeruję wysłać tam drona zwiadowczego\\\\n\\\\npozdrawiam Wiktor Borkowski / dla przyjaciół: Victor :)\", \"from\": \"vik4tor@proton.me\", \"to\": \"operator04227@system.nwo\", \"date\": \"2026-03-05 16:25\", \"request\": 1}], \"notFound\": []}' name='zmail_get_message' tool_call_id='tool_zmail_get_mes",
    "ts": "20260604T100629Z"
  },
  {
    "type": "llm_text",
    "text": "",
    "ts": "20260604T100630Z"
  },
  {
    "type": "tool_start",
    "tool": "zmail_get_inbox",
    "input": "{'page': 1}",
    "ts": "20260604T100630Z"
  },
  {
    "type": "http_request",
    "url": "https://hub.ag3nts.org/api/zmail",
    "body": {
      "apikey": "***",
      "action": "getInbox",
      "page": 1
    },
    "ts": "20260604T100634Z"
  },
  {
    "type": "http_response",
    "url": "https://hub.ag3nts.org/api/zmail",
    "status_code": 200,
    "preview": "{'ok': True, 'action': 'getInbox', 'pagination': {'page': 1, 'perPage': 5, 'total': 73, 'totalPages': 15}, 'items': [{'rowID': 5, 'messageID': 'f4b8494a2de6d392f395dd6b942b5d58', 'threadID': 62044, 'subject': 'Re: Podejrzana aktywność przy obiekcie PWR6132PL', 'from': 'operator04227@system.nwo', 'to': 'vik4tor@proton.me', 'date': '2026-03-13 12:05', 'modifyHash': 'bdb235af6b7cf202d81ebb13ca8eb979'}, {'rowID': 4, 'messageID': '31ee683ec197a878d0129cf9e6d9f0c9', 'threadID': 62070, 'subject': 'Re: Zapis z kamer w obiekcie PWR6132PL - pilne!', 'from': 'monitoring.wideo@security-node.nwo', 'to': 'o",
    "ts": "20260604T100634Z"
  },
  {
    "type": "tool_end",
    "tool": "?",
    "output": "content='{\"ok\": true, \"action\": \"getInbox\", \"pagination\": {\"page\": 1, \"perPage\": 5, \"total\": 73, \"totalPages\": 15}, \"items\": [{\"rowID\": 5, \"messageID\": \"f4b8494a2de6d392f395dd6b942b5d58\", \"threadID\": 62044, \"subject\": \"Re: Podejrzana aktywność przy obiekcie PWR6132PL\", \"from\": \"operator04227@system.nwo\", \"to\": \"vik4tor@proton.me\", \"date\": \"2026-03-13 12:05\", \"modifyHash\": \"bdb235af6b7cf202d81ebb13ca8eb979\"}, {\"rowID\": 4, \"messageID\": \"31ee683ec197a878d0129cf9e6d9f0c9\", \"threadID\": 62070, \"subject\": \"Re: Zapis z kamer w obiekcie PWR6132PL - pilne!\", \"from\": \"monitoring.wideo@security-node.nwo\", \"to\": \"operator04227@system.nwo\", \"date\": \"2026-03-13 12:05\", \"modifyHash\": \"531e419a4aa342c4a8c4ec5357df758e\"}, {\"rowID\": 2, \"messageID\": \"162c1766431694d20b4c2e0743b9fbb9\", \"threadID\": 62045, \"subj",
    "ts": "20260604T100634Z"
  },
  {
    "type": "llm_text",
    "text": "",
    "ts": "20260604T100635Z"
  },
  {
    "type": "tool_start",
    "tool": "zmail_get_message",
    "input": "{'message_id': '4'}",
    "ts": "20260604T100635Z"
  },
  {
    "type": "http_request",
    "url": "https://hub.ag3nts.org/api/zmail",
    "body": {
      "apikey": "***",
      "action": "getMessages",
      "ids": "4"
    },
    "ts": "20260604T100639Z"
  },
  {
    "type": "http_response",
    "url": "https://hub.ag3nts.org/api/zmail",
    "status_code": 200,
    "preview": "{'ok': True, 'action': 'getMessages', 'count': 1, 'items': [{'rowID': 4, 'messageID': '31ee683ec197a878d0129cf9e6d9f0c9', 'threadID': 62070, 'subject': 'Re: Zapis z kamer w obiekcie PWR6132PL - pilne!', 'message': 'no dobra... wiem, że miałem już nie przeszkadzać Ci w pracy, ale tego na pewno nie znasz! https://www.youtube.com/watch?v=EvQfBy3xIUc Człowieku, co za nuta xDD', 'from': 'monitoring.wideo@security-node.nwo', 'to': 'operator04227@system.nwo', 'date': '2026-03-13 12:05', 'request': 3}], 'notFound': []}",
    "ts": "20260604T100639Z"
  },
  {
    "type": "tool_end",
    "tool": "?",
    "output": "content='{\"ok\": true, \"action\": \"getMessages\", \"count\": 1, \"items\": [{\"rowID\": 4, \"messageID\": \"31ee683ec197a878d0129cf9e6d9f0c9\", \"threadID\": 62070, \"subject\": \"Re: Zapis z kamer w obiekcie PWR6132PL - pilne!\", \"message\": \"no dobra... wiem, że miałem już nie przeszkadzać Ci w pracy, ale tego na pewno nie znasz! https://www.youtube.com/watch?v=EvQfBy3xIUc Człowieku, co za nuta xDD\", \"from\": \"monitoring.wideo@security-node.nwo\", \"to\": \"operator04227@system.nwo\", \"date\": \"2026-03-13 12:05\", \"request\": 3}], \"notFound\": []}' name='zmail_get_message' tool_call_id='tool_zmail_get_message_Xv6GH5EAT8jiBp7eoymO'",
    "ts": "20260604T100639Z"
  },
  {
    "type": "llm_text",
    "text": "",
    "ts": "20260604T100641Z"
  },
  {
    "type": "tool_start",
    "tool": "zmail_search",
    "input": "{'query': 'password OR hasło OR secret'}",
    "ts": "20260604T100641Z"
  },
  {
    "type": "http_request",
    "url": "https://hub.ag3nts.org/api/zmail",
    "body": {
      "apikey": "***",
      "action": "search",
      "query": "password OR hasło OR secret",
      "page": 1
    },
    "ts": "20260604T100644Z"
  },
  {
    "type": "http_response",
    "url": "https://hub.ag3nts.org/api/zmail",
    "status_code": 200,
    "preview": "{'ok': True, 'action': 'search', 'query': 'password OR hasło OR secret', 'pagination': {'page': 1, 'perPage': 5, 'total': 1, 'totalPages': 1}, 'items': [{'rowID': 96, 'messageID': 'a7353b90b3c7d973255aa6cf36bcba0f', 'threadID': 62073, 'subject': 'Nowe hasło do systemu pracowniczego', 'from': 'security@system.nwo', 'to': 'operator04227@system.nwo', 'date': '2025-12-06 22:40', 'snippet': 'Ze względów bezpieczeństwa zmi...'}]}",
    "ts": "20260604T100644Z"
  },
  {
    "type": "tool_end",
    "tool": "?",
    "output": "content='{\"ok\": true, \"action\": \"search\", \"query\": \"password OR hasło OR secret\", \"pagination\": {\"page\": 1, \"perPage\": 5, \"total\": 1, \"totalPages\": 1}, \"items\": [{\"rowID\": 96, \"messageID\": \"a7353b90b3c7d973255aa6cf36bcba0f\", \"threadID\": 62073, \"subject\": \"Nowe hasło do systemu pracowniczego\", \"from\": \"security@system.nwo\", \"to\": \"operator04227@system.nwo\", \"date\": \"2025-12-06 22:40\", \"snippet\": \"Ze względów bezpieczeństwa zmi...\"}]}' name='zmail_search' tool_call_id='tool_zmail_search_rN3YVKwGfmQ3BH7L28jB'",
    "ts": "20260604T100644Z"
  },
  {
    "type": "llm_text",
    "text": "",
    "ts": "20260604T100645Z"
  },
  {
    "type": "tool_start",
    "tool": "zmail_get_message",
    "input": "{'message_id': '96'}",
    "ts": "20260604T100645Z"
  },
  {
    "type": "http_request",
    "url": "https://hub.ag3nts.org/api/zmail",
    "body": {
      "apikey": "***",
      "action": "getMessages",
      "ids": "96"
    },
    "ts": "20260604T100649Z"
  },
  {
    "type": "http_response",
    "url": "https://hub.ag3nts.org/api/zmail",
    "status_code": 200,
    "preview": "{'ok': True, 'action': 'getMessages', 'count': 1, 'items': [{'rowID': 96, 'messageID': 'a7353b90b3c7d973255aa6cf36bcba0f', 'threadID': 62073, 'subject': 'Nowe hasło do systemu pracowniczego', 'message': 'Ze względów bezpieczeństwa zmieniliśmy Twoje hasło dostępowe do systemu pracowniczego na nowe.\\n\\nProszę od teraz logować się hasłem:\\nRABARBAR25\\n\\nPrzypominamy, że system pracowniczy zawiera dane poufne, więc przekazanie komukolwiek hasła dostępowego będzie karane!', 'from': 'security@system.nwo', 'to': 'operator04227@system.nwo', 'date': '2025-12-06 22:40', 'request': 1}], 'notFound': []}",
    "ts": "20260604T100650Z"
  },
  {
    "type": "tool_end",
    "tool": "?",
    "output": "content='{\"ok\": true, \"action\": \"getMessages\", \"count\": 1, \"items\": [{\"rowID\": 96, \"messageID\": \"a7353b90b3c7d973255aa6cf36bcba0f\", \"threadID\": 62073, \"subject\": \"Nowe hasło do systemu pracowniczego\", \"message\": \"Ze względów bezpieczeństwa zmieniliśmy Twoje hasło dostępowe do systemu pracowniczego na nowe.\\\\n\\\\nProszę od teraz logować się hasłem:\\\\nRABARBAR25\\\\n\\\\nPrzypominamy, że system pracowniczy zawiera dane poufne, więc przekazanie komukolwiek hasła dostępowego będzie karane!\", \"from\": \"security@system.nwo\", \"to\": \"operator04227@system.nwo\", \"date\": \"2025-12-06 22:40\", \"request\": 1}], \"notFound\": []}' name='zmail_get_message' tool_call_id='tool_zmail_get_message_nLj1QozFumT9K7LZQW3z'",
    "ts": "20260604T100650Z"
  },
  {
    "type": "llm_text",
    "text": "",
    "ts": "20260604T100651Z"
  },
  {
    "type": "tool_start",
    "tool": "hub_verify",
    "input": "{'date': '2026-03-23', 'password': 'RABARBAR25', 'confirmation_code': 'SEC-c1e598764329cc9c377ef1d029be8ceb'}",
    "ts": "20260604T100651Z"
  },
  {
    "type": "http_request",
    "url": "https://hub.ag3nts.org/verify",
    "body": {
      "apikey": "***",
      "task": "mailbox",
      "answer": {
        "password": "RABARBAR25",
        "date": "2026-03-23",
        "confirmation_code": "SEC-c1e598764329cc9c377ef1d029be8ceb"
      }
    },
    "ts": "20260604T100651Z"
  },
  {
    "type": "http_response",
    "url": "https://hub.ag3nts.org/verify",
    "status_code": 200,
    "preview": "{'code': 0, 'message': '{FLG:TRAITOR}'}",
    "ts": "20260604T100652Z"
  },
  {
    "type": "flag_found",
    "flag": "{FLG:TRAITOR}",
    "ts": "20260604T100652Z"
  },
  {
    "type": "tool_end",
    "tool": "?",
    "output": "content='{\"code\": 0, \"message\": \"{FLG:TRAITOR}\"}' name='hub_verify' tool_call_id='tool_hub_verify_VqiMaQoZCThTott8l5yi'",
    "ts": "20260604T100652Z"
  },
  {
    "type": "llm_text",
    "text": "The security investigator has successfully extracted the required intelligence from the captured mailbox.\n\n1.  **Attack Date:** 2026-03-23 (Found in a security department email regarding the planned bombing of object PWR6132PL).\n2.  **Employee System Password:** RABARBAR25 (Found in a password reset notification from security@system.nwo).\n3.  **Security Confirmation Code:** SEC-c1e598764329cc9c377ef1d029be8ceb (Extracted from a correction email in the SEC-41248 ticket thread).\n\nVerification successful.\n**Flag:** {FLG:TRAITOR}",
    "ts": "20260604T100654Z"
  },
  {
    "type": "agent_done",
    "final_message": "The security investigator has successfully extracted the required intelligence from the captured mailbox.\n\n1.  **Attack Date:** 2026-03-23 (Found in a security department email regarding the planned bombing of object PWR6132PL).\n2.  **Employee System Password:** RABARBAR25 (Found in a password reset notification from security@system.nwo).\n3.  **Security Confirmation Code:** SEC-c1e598764329cc9c377ef1d029be8ceb (Extracted from a correction email in the SEC-41248 ticket thread).\n\nVerification successful.\n**Flag:** {FLG:TRAITOR}",
    "ts": "20260604T100654Z"
  }
]